{
  "name": "StubNode",
  "globalDependencies": {
    "express": "github:DefinitelyTyped/DefinitelyTyped/express/express.d.ts#9dbdb50546cbec870208edb11e962872128cc1f8",
    "serve-static": "github:DefinitelyTyped/DefinitelyTyped/serve-static/serve-static.d.ts#9dbdb50546cbec870208edb11e962872128cc1f8",
    "node": "github:DefinitelyTyped/DefinitelyTyped/node/node.d.ts#9dbdb50546cbec870208edb11e962872128cc1f8",
    "express-serve-static-core": "github:DefinitelyTyped/DefinitelyTyped/express-serve-static-core/express-serve-static-core.d.ts#9dbdb50546cbec870208edb11e962872128cc1f8",
    "mime": "github:DefinitelyTyped/DefinitelyTyped/mime/mime.d.ts#9dbdb50546cbec870208edb11e962872128cc1f8",
    "body-parser": "github:DefinitelyTyped/DefinitelyTyped/body-parser/body-parser.d.ts#9dbdb50546cbec870208edb11e962872128cc1f8",
    "mocha": "github:DefinitelyTyped/DefinitelyTyped/mocha/mocha.d.ts#b1d0fa176819fcd28577a0a40adcf17ebb866b14"
  }
}
